<?xml version="1.0" encoding="utf-8"?>
<!-- Generator: Adobe Illustrator 24.0.3, SVG Export Plug-In . SVG Version: 6.00 Build 0)  -->
<svg version="1.1" id="Layer_1" xmlns="http://www.w3.org/2000/svg" xmlns:xlink="http://www.w3.org/1999/xlink" x="0px" y="0px"
	 viewBox="0 0 2501.4 1319" style="enable-background:new 0 0 2501.4 1319;" xml:space="preserve">
<style type="text/css">
	.st0{fill:#BBE6FB;}
	.st1{fill:#FFFFFF;}
	.st2{fill:#373535;}
	.st3{fill:#1287B1;}
	.st4{fill:#373535;fill-opacity:0.35;}
</style>
<g>
	<path class="st0" d="M1997.6,442.3c18.6,213.8-318.3,417.9-752.8,455C810.4,934.3,444.2,790.8,425.7,577
		C407.1,363.2,744,159.1,1178.4,122C1611.9,84.9,1979,227.5,1997.6,442.3"/>
	<path class="st1" d="M1190.1,146.4c-166-2.9-359.3,63.5-503.8,125c-14.6,43-23.4,88.8-23.4,136.7C662.9,662,892.4,868,1175.5,868
		s513.6-205,513.6-459.9c0-80.1-23.4-156.2-63.5-221.6C1510.4,168.9,1351.2,149.4,1190.1,146.4"/>
	<path class="st1" d="M1176.5,146.4c-91.8-5.9-249.9,42-381.7,89.8c-20.5,46.9-31.2,98.6-31.2,153.3
		c0,222.6,202.1,403.2,414.9,403.2c211.9,0,399.3-180.6,414.9-403.2c4.9-72.2-19.5-140.6-54.7-199.2
		C1403,167,1258.5,152.3,1176.5,146.4"/>
	<path class="st2" d="M941.2,361.2c11.7-25.4,28.3-37.1,44.9-57.6c-2-4.9-5.9-21.5-5.9-26.4c0-25.4,20.5-44.9,44.9-44.9
		c5.9,0,11.7,1,16.6,2.9c75.2-57.6,173.8-82,273.4-59.6c8.8,2,17.6,4.9,26.4,6.8c-97.6-13.7-208.9,21.5-284.1,82
		c2,5.9,8.8,20.5,8.8,27.3c0,25.4-16.6,31.2-41,31.2c-5.9,0-10.7-1-16.6-2.9c-16.6,22.5-38.1,66.4-47.8,93.7
		c42,37.1,79.1,50.8,127.9,69.3c0-2,2-4.9,2-6.8c0-75.2,66.4-136.7,141.6-136.7c67.4,0,124,48.8,134.7,113.3
		c34.2-21.5,66.4-38.1,90.8-69.3c-5.9-6.8-11.7-27.3-11.7-37.1c0-22.5,18.6-41,41-41c2.9,0,5.9,0,9.8,1c12.7-26.4,22.5-53.7,28.3-82
		c-118.1-87.9-346.6-75.2-346.6-75.2s-181.6-9.8-304.6,50.8C882.6,256.8,906,313.4,941.2,361.2"/>
	<path class="st2" d="M1505.5,327.1c8.8,7.8,12.7,13.7,16.6,20.5c10.7,19.5-10.7,38.1-34.2,38.1c-2,0-4.9,0-6.8-1
		c-25.4,40-70.3,90.8-110.3,117.2c61.5,9.8,119.1,34.2,164,72.2c33.2-59.6,58.6-146.4,58.6-219.7c0-55.7-24.4-96.7-61.5-126.9
		C1530.9,257.8,1514.3,299.7,1505.5,327.1 M1009.5,705.9c20.5-56.6,70.3-99.6,118.1-137.7c-6.8-9.8-17.6-33.2-21.5-43.9
		c-57.6-17.6-108.4-50.8-148.4-93.7c0,1-1,2.9-1,3.9c-7.8,33.2-8.8,67.4-4.9,99.6c27.3,4.9,48.8,29.3,48.8,58.6
		c0,17.6-15.6,42-27.3,53.7C985.1,671.7,993.9,685.4,1009.5,705.9"/>
	<path class="st2" d="M1005.6,752.8c-24.4-24.4-41-72.2-56.6-102.5c-2.9,0-5.9,1-8.8,1c-33.2,0-67.4-27.3-59.6-59.6
		c3.9-17.6,16.6-29.3,36.1-39.1c-4.9-37.1-5.9-88.8,2.9-126.9c2-10.7,7.8-15.6,10.7-26.4c-36.1-52.7-59.6-123-59.6-192.3v-7.8
		c-61.5,31.2-107.4,79.1-107.4,155.2c0,168.9,97.6,334.9,242.1,399.3L1005.6,752.8 M1362,519.4c-18.6,52.7-69.3,91.8-128.9,91.8
		c-32.2,0-61.5-10.7-84-29.3c-47.8,37.1-91.8,102.5-113.3,160.1c9.8,10.7,16.6,19.5,28.3,29.3c33.2,8.8,80.1,0,116.2,0
		c145.5,0,275.3-64.4,349.5-178.7C1479.1,557.5,1420.6,524.3,1362,519.4"/>
	<path class="st3" d="M937.3,380.8c11.7-25.4,25.4-47.8,42-69.3c-2-4.9-2.9-10.7-2.9-15.6c0-25.4,20.5-44.9,44.9-44.9
		c5.9,0,11.7,1,16.6,2.9c75.2-57.6,173.8-82,273.4-59.6c8.8,2,17.6,4.9,26.4,6.8c-97.6-13.7-199.2,16.6-274.3,77.1
		c2,5.9,3.9,11.7,3.9,17.6c0,25.4-20.5,44.9-44.9,44.9c-5.9,0-10.7-1-16.6-2.9c-16.6,22.5-31.2,47.8-41,75.2
		c36.1,38.1,80.1,69.3,128.9,86.9V493c0-75.2,61.5-136.7,136.7-136.7c67.4,0,124,48.8,134.7,113.3c34.2-21.5,63.5-48.8,88.8-81
		c-5.9-6.8-9.8-15.6-9.8-25.4c0-22.5,18.6-41,41-41c2.9,0,5.9,0,9.8,1c12.7-26.4,22.5-53.7,28.3-82
		c-118.1-87.9-346.6-75.2-346.6-75.2s-181.6-9.8-304.6,50.8C878.7,276.3,902.1,332.9,937.3,380.8"/>
	<path class="st3" d="M1511.4,333.9c8.8,7.8,13.7,18.6,13.7,30.3c0,22.5-18.6,41-41,41c-2,0-4.9,0-6.8-1
		c-25.4,40-59.6,74.2-99.6,99.6c58.6,8.8,114.2,34.2,160.1,72.2c33.2-59.6,52.7-128.9,52.7-202.1c0-55.7-24.4-96.7-61.5-126.9
		C1527,277.3,1521.1,306.6,1511.4,333.9 M1015.4,718.6c20.5-56.6,55.7-106.4,103.5-144.5c-6.8-9.8-12.7-19.5-16.6-31.2
		c-57.6-17.6-108.4-50.8-148.4-93.7c0,1-1,2.9-1,3.9c-7.8,33.2-8.8,67.4-4.9,99.6c27.3,4.9,48.8,29.3,48.8,58.6
		c0,17.6-7.8,33.2-19.5,43.9C987.1,677.6,1000.7,699.1,1015.4,718.6"/>
	<path class="st3" d="M1005.6,751.8c-24.4-24.4-44.9-51.7-60.5-82c-2.9,0-5.9,1-8.8,1c-33.2,0-59.6-26.4-59.6-59.6
		c0-23.4,13.7-43.9,33.2-53.7c-4.9-37.1-2.9-74.2,5.9-112.3c2-10.7,5.9-21.5,8.8-32.2C888.5,360.3,867,295.8,867,226.5v-7.8
		c-61.5,31.2-107.4,79.1-107.4,155.2c0,168.9,100.6,314.4,245.1,378.8C1005.6,752.8,1005.6,752.8,1005.6,751.8 M1358.1,538.9
		c-18.6,52.7-69.3,91.8-128.9,91.8c-32.2,0-61.5-10.7-84-29.3c-47.8,37.1-84,87.9-106.4,145.5c9.8,10.7,20.5,20.5,31.2,30.3
		c33.2,8.8,68.3,13.7,104.5,13.7c145.5,0,274.3-75.2,348.6-189.4C1474.3,566.3,1416.7,543.8,1358.1,538.9"/>
	<path class="st1" d="M1363,503.8l125.9-30.3l-126.9-6.8l103.5-78.1l-117.2,42l79.1-110.3l-110.3,73.2l38.1-128.9L1280,371l-2-134.7
		l-49.8,120.1l-41-121.1l2,142.5l-71.3-127.9l39.1,135.7l-116.2-84l90.8,114.2l-144.5-52.7l113.3,84L954.9,452l149.4,38.1
		l-149.4,32.2l147.4,10.7l-124,79.1l127.9-45.9l-88.8,112.3l112.3-90.8l-40,150.4l86.9-123l-11.7,144.5l48.8-131.8l42,137.7
		l9.8-138.6l62.5,118.1l-37.1-134.7l113.3,87.9l-73.2-112.3l125,48.8l-95.7-93.7l127.9,9.8L1363,503.8z"/>
	<path class="st4" d="M18.6,744.9c391.5-391.5,703.9-512.6,988-567.2c37.1-6.8,44.9-89.8,44.9-89.8s4.9,60.5,31.2,68.3
		c26.4,7.8,60.5-94.7,60.5-94.7s-31.2,91.8,0,97.6c31.2,4.9,89.8-89.8,89.8-89.8s-23.4,81-7.8,86.9c15.6,4.9,94.7-118.1,94.7-118.1
		s-46.9,81-2.9,89.8c44.9,7.8,110.3-55.7,110.3-55.7s-50.8,57.6-28.3,66.4c97.6,34.2,175.7-91.8,175.7-91.8s-18.6,55.7-65.4,116.2
		c102.5,26.4,178.7-127.9,178.7-127.9l-76.2,154.3c39.1,19.5,196.2-162.1,196.2-162.1s-81,141.6-128.9,170.9
		c26.4,21.5,121.1-63.5,121.1-63.5s-76.2,94.7-46.9,99.6c42,34.2,197.2-175.7,197.2-175.7s-60.5,124-149.4,220.7
		C1875.5,317.3,2061,78.1,2061,78.1s-4.9,76.2-139.6,197.2c99.6-12.7,228.5-202.1,228.5-202.1s-46.9,141.6-160.1,242.1
		c97.6-9.8,254.8-251.9,254.8-251.9S2184.1,231.4,2061,329c136.7,30.3,333.9-173.8,333.9-173.8s-77.1,144.5-178.7,204.1
		c113.3,43,268.5-135.7,268.5-135.7S2329.5,462.8,2082.5,452c-81-3.9-326.1-246-851.4-226.5C536,250.9,389.6,545.8,18.6,744.9"/>
	<path class="st2" d="M34.2,715.7c391.5-391.5,703.9-512.6,988-567.2c37.1-6.8,44.9-89.8,44.9-89.8s4.9,60.5,31.2,68.3
		s60.5-94.7,60.5-94.7s-31.2,91.8,0,97.6c31.2,4.9,89.8-89.8,89.8-89.8s-23.4,81-7.8,86.9c15.6,4.9,94.7-118.1,94.7-118.1
		s-46.9,81-2.9,89.8C1377.6,106.4,1443,43,1443,43s-50.8,57.6-28.3,66.4c97.6,34.2,175.7-91.8,175.7-91.8s-18.6,55.7-65.4,116.2
		c102.5,26.4,178.7-127.9,178.7-127.9l-76.2,154.3C1666.6,181.6,1824.8,0,1824.8,0s-81,141.6-128.9,170.9
		c26.4,18.6,121.1-65.4,121.1-65.4s-76.2,94.7-46.9,99.6c42,34.2,197.2-175.7,197.2-175.7s-61.5,124-150.4,220.7
		c74.2,37.1,260.7-202.1,260.7-202.1s-4.9,76.2-139.6,197.2C2037.6,232.4,2166.5,43,2166.5,43s-46.9,141.6-160.1,242.1
		c97.6-9.8,254.8-251.9,254.8-251.9s-60.5,167.9-183.6,265.6C2214.3,329,2411.5,125,2411.5,125s-77.1,144.5-178.7,204.1
		c113.3,43,268.5-135.7,268.5-135.7s-155.2,239.2-402.2,228.5c-81-3.9-326.1-246-851.4-226.5C552.6,221.6,405.2,515.5,34.2,715.7"/>
	<path class="st4" d="M8.8,787.9c207,103.5,396.4-15.6,634.6,51.7c181.6,50.8,402.2,114.2,702,70.3
		c299.7-43,555.5-173.8,678.6-406.2c38.1-103.5,193.3,23.4,193.3,23.4s-113.3-46.9-110.3-25.4c2.9,22.5,169.9,99.6,169.9,99.6
		s-151.3-46.9-141.6-11.7c8.8,35.1,189.4,177.7,189.4,177.7s-206-154.3-222.6-132.8c-17.6,21.5,86.9,106.4,86.9,106.4
		s-171.8-106.4-232.4-75.2c-43.9,22.5,178.7,167.9,178.7,167.9s-144.5-110.3-178.7-81c-34.2,29.3,163,265.6,163,265.6
		s-224.6-242.1-247-230.4c-22.5,11.7,61.5,127.9,61.5,127.9s-109.3-121.1-139.6-100.6c-30.3,21.5,158.2,334.9,158.2,334.9
		s-204.1-321.2-289-267.5c131.8,290,83,331,83,331s-16.6-295.8-181.6-288c-83,3.9,39.1,220.7,39.1,220.7S1491.8,948,1416.7,951.9
		c137.7,261.7,88.8,367.1,88.8,367.1s22.5-223.6-164-347.6c71.3,63.5-44.9,347.6-44.9,347.6s101.5-418.8-75.2-338.8
		c-28.3,12.7-2,208.9-2,208.9s-35.1-224.6-88.8-212.8c-31.2,6.8-197.2,311.4-197.2,311.4s135.7-329,94.7-315.4
		c-30.3,9.8-86.9,145.5-86.9,145.5s27.3-133.8,0-141.6c-27.3-7.8-181.6,141.6-181.6,141.6s114.2-133.8,94.7-162.1
		c-30.3-42-64.4-43.9-106.4-27.3c-60.5,23.4-141.6,133.8-141.6,133.8s81-112.3,67.4-153.3c-22.5-67.4-255.8,129.9-255.8,129.9
		S555.5,909,524.3,880.7c-31.2-27.3-203.1-19.5-255.8-19.5C111.3,863.1,56.6,826,8.8,787.9"/>
	<path class="st2" d="M0,764.5c207,103.5,396.4-15.6,634.6,51.7c181.6,50.8,402.2,114.2,702,70.3c299.7-43,555.5-173.8,678.6-406.2
		c38.1-103.5,193.3,23.4,193.3,23.4s-113.3-46.9-110.3-25.4c2.9,22.5,169.9,99.6,169.9,99.6s-151.3-46.9-141.6-11.7
		c8.8,35.1,189.4,177.7,189.4,177.7s-204.1-155.2-220.7-133.8c-16.6,21.5,86.9,106.4,86.9,106.4s-171.8-106.4-232.4-75.2
		c-43.9,22.5,178.7,167.9,178.7,167.9s-144.5-110.3-178.7-81c-34.2,29.3,163,265.6,163,265.6s-223.6-242.1-246-230.4
		c-22.5,11.7,61.5,127.9,61.5,127.9s-111.3-120.1-141.6-99.6c-30.3,21.5,157.2,334.9,157.2,334.9s-204.1-322.2-288-268.5
		c132.8,290.9,83,332,83,332s-16.6-295.8-181.6-288c-83,3.9,39.1,220.7,39.1,220.7S1485,925.6,1409.8,929.5
		c137.7,261.7,88.8,367.1,88.8,367.1s22.5-223.6-164-347.6c71.3,63.5-44.9,347.6-44.9,347.6s101.5-418.8-75.2-338.8
		c-28.3,12.7-2,208.9-2,208.9s-35.1-224.6-88.8-212.8c-31.2,6.8-197.2,311.4-197.2,311.4s135.7-329,94.7-315.4
		c-30.3,9.8-86.9,145.5-86.9,145.5s27.3-133.8,0-141.6c-27.3-7.8-181.6,141.6-181.6,141.6S867,961.7,847.5,933.4
		c-30.3-42-64.4-43.9-106.4-27.3c-60.5,23.4-141.6,133.8-141.6,133.8s81-112.3,67.4-153.3C644.4,819.1,411,1016.4,411,1016.4
		s137.7-129.9,106.4-158.2c-31.2-27.3-203.1-19.5-255.8-19.5C102.5,839.6,47.8,802.5,0,764.5"/>
</g>
</svg>
