<?xml version="1.0" encoding="utf-8"?>
<!-- Generator: Adobe Illustrator 24.0.3, SVG Export Plug-In . SVG Version: 6.00 Build 0)  -->
<svg version="1.1" id="Layer_1" xmlns="http://www.w3.org/2000/svg" xmlns:xlink="http://www.w3.org/1999/xlink" x="0px" y="0px"
	 viewBox="0 0 1437.5 1437.5" style="enable-background:new 0 0 1437.5 1437.5;" xml:space="preserve">
<style type="text/css">
	.st0{fill:#2C1071;}
	.st1{fill:#53C1DE;}
</style>
<g>
	<circle class="st0" cx="718.8" cy="718.8" r="718.8"/>
	<g>
		<path class="st1" d="M1070.6,547.9c-11.6-4-23.3-7.7-35.2-11.1c2-8,3.8-15.9,5.4-24c26.6-129.2,9.2-233.2-50.2-267.5
			c-57-32.8-150.1,1.4-244.2,83.3c-9.3,8.1-18.3,16.4-27.2,24.9c-5.9-5.7-12-11.3-18.1-16.7c-98.6-87.6-197.4-124.5-256.8-90.1
			c-56.9,32.9-73.8,130.8-49.8,253.2c2.4,12.1,5.1,24.2,8.1,36.2c-14,4-27.5,8.2-40.4,12.7c-115.6,40.3-189.4,103.5-189.4,169
			c0,67.7,79.3,135.5,199.7,176.7c9.8,3.3,19.6,6.4,29.5,9.2c-3.2,12.9-6.1,25.9-8.6,39c-22.8,120.3-5,215.8,51.8,248.5
			c58.6,33.8,157-0.9,252.8-84.7c7.6-6.6,15.2-13.6,22.8-21c9.6,9.2,19.4,18.2,29.5,26.9c92.8,79.9,184.5,112.1,241.2,79.3
			c58.6-33.9,77.6-136.5,52.9-261.3c-1.9-9.5-4.1-19.3-6.5-29.2c6.9-2,13.7-4.1,20.3-6.3c125.2-41.5,206.6-108.5,206.6-177.1
			C1264.7,652.1,1188.5,588.5,1070.6,547.9z M777.1,363.8c80.6-70.2,156-97.9,190.3-78.1c36.6,21.1,50.8,106.1,27.8,217.6
			c-1.5,7.3-3.1,14.5-4.9,21.7c-45.3-10.5-94.5-18.2-146-23.1c-30-42.7-61.1-81.6-92.3-115.2C760.2,379,768.5,371.3,777.1,363.8z
			 M495.2,773.8c9.9,19.1,20.2,37.9,31,56.5c11,19,22.4,37.7,34.3,56.1c-35.8-4-69.5-9.4-100.6-16.2
			C469.5,839.1,481.3,806.7,495.2,773.8z M495.2,664.1c-13.6-32.2-25.2-63.9-34.7-94.5c31.2-7,64.4-12.7,99-17
			c-11.6,18.1-22.7,36.4-33.5,55C515.3,626.2,505,645,495.2,664.1z M520,719c14.4-29.9,29.9-59.3,46.4-88v0
			c16.6-28.8,34.2-56.9,52.9-84.3c32.5-2.5,65.8-3.7,99.4-3.7c33.8,0,67.1,1.3,99.6,3.8c18.5,27.4,36.1,55.4,52.6,84
			c16.6,28.7,32.3,57.9,47.1,87.6c-14.6,30-30.2,59.5-46.9,88.4h0c-16.5,28.7-34,56.9-52.4,84.5c-32.4,2.3-65.9,3.5-100,3.5
			c-34,0-67-1.1-98.9-3.1c-18.8-27.5-36.7-55.8-53.4-84.7C549.9,778.2,534.4,748.9,520,719z M911.6,830c11-19,21.5-38.3,31.7-57.9
			c14.6,33.3,26.9,65.5,36.7,96.1c-31.7,7.2-65.8,13-101.9,17.4C889.6,867.3,900.8,848.7,911.6,830z M942.8,664.1
			c-10.1-19.2-20.6-38.1-31.4-56.8c-10.7-18.4-21.7-36.6-33.2-54.6c34.8,4.4,68.2,10.2,99.6,17.4
			C968.3,600.3,956.6,631.8,942.8,664.1z M719.3,420.2c21.5,23.3,43.1,49.3,64.3,77.6c-43-2-86.1-2-129.1,0
			C675.7,469.8,697.4,443.8,719.3,420.2z M467.8,287.2c36.5-21.1,117.3,9,202.5,84.6c5.4,4.8,10.9,9.9,16.4,15.1
			c-31.7,34.1-63.1,72.8-93,115.1c-51.4,4.8-100.5,12.4-145.7,22.6c-2.8-11.1-5.3-22.4-7.5-33.6C419.8,386.1,433.5,307,467.8,287.2z
			 M414.5,858.9c-9.1-2.6-18-5.4-27-8.4c-53.2-18.2-97.2-41.9-127.4-67.7c-27.1-23.2-40.8-46.2-40.8-64.9
			c0-39.8,59.3-90.5,158.1-124.9c12.4-4.3,24.9-8.3,37.6-11.8c13.7,44.4,31.6,90.9,53.2,137.9C446.5,766.7,428.3,813.9,414.5,858.9z
			 M667.3,1071.5c-42.4,37-84.8,63.3-122.2,76.5h0c-33.6,11.9-60.4,12.2-76.6,2.9c-34.4-19.9-48.8-96.6-29.2-199.4
			c2.3-12.2,5-24.2,8-36.3c44.7,9.9,94.2,17,147.1,21.3c30.2,42.5,61.8,81.6,93.7,115.8C681.3,1058.9,674.4,1065.3,667.3,1071.5z
			 M720.6,1018.8c-22.1-23.9-44.2-50.2-65.7-78.6c20.9,0.8,42.2,1.2,63.9,1.2c22.3,0,44.3-0.5,65.9-1.5
			C763.4,968.8,742,995.2,720.6,1018.8z M1003.8,1083.7c-6.5,35.1-19.6,58.4-35.8,67.8c-34.4,19.9-108-6-187.4-74.3
			c-9.1-7.8-18.3-16.2-27.5-25c30.8-33.7,61.5-72.8,91.5-116.2c52.8-4.7,102.7-12.3,147.9-22.8c2.2,9,4.2,17.8,5.9,26.4
			C1009.5,994.7,1011.1,1044.6,1003.8,1083.7z M1043.4,850.7L1043.4,850.7c-6,2-12.1,3.9-18.3,5.7c-13.8-43.8-32.5-90.3-55.3-138.3
			c21.8-46.9,39.7-92.8,53.1-136.3c11.2,3.2,22,6.6,32.5,10.2c101,34.8,162.7,86.2,162.7,125.8
			C1218.1,760.1,1151.5,814.9,1043.4,850.7z"/>
		<path class="st1" d="M718.8,620.3c53.9,0,97.5,43.7,97.5,97.5c0,53.9-43.7,97.5-97.5,97.5c-53.8,0-97.5-43.7-97.5-97.5
			C621.3,664,664.9,620.3,718.8,620.3"/>
	</g>
</g>
</svg>
